{
    "display_season_title": "true",
    "deco_color": "lightcoral",
    "poster_tmdb": "w342",
    "backdrop_tmdb": "w1280",
    "active-view": "false",
    "history-view": "true",
    "tmdb_account": "false",
    "meta-view": "false",
    "api_tmdb": "b7cf9324cbeb6f4fb811144aa9397093",
    "tmdb_lang": "ar",
    "tmdb_session": "false",
    "information-view": "false",
    "display_info_file": "false",
    "bstoken": ""
}